{
 "Version": "2012-10-17",
 "Statement": [
   {
     "Sid": "ExplicitDenyOnDelete",
     "Effect": "Deny",
     "Action": [
         "ec2:Delete*",
         "ec2:DetachVolume",
         "rds:DeleteDBCluster",
         "elasticfilesystem:DeleteFileSystem",
         "kafka:DeleteCluster",
         "s3:DeleteBucket"
     ],
     "Resource": "*"
   },
   {
     "Sid": "DenyAccessToNonDataInfraResources",
     "Effect": "Deny",
     "Action": [
       "ec2:Cancel*",
       "ec2:ModifyVolume",
       "ec2:Disable*",
       "ec2:Disassociate*",
       "ec2:Modify*",
       "ec2:RebootInstances",
       "ec2:Reject*",
       "ec2:Replace*",
       "ec2:Revoke*"
     ],
     "Resource": "*",
     "Condition": {
       "ForAllValues:StringNotEquals": {
         "aws:ResourceTag/org:team": "data-infra"
       }
     }
   },
   {
     "Sid": "AccessToCreateDeleteIAMAccessKey",
     "Effect": "Allow",
     "Action":"iam:*",
     "Resource": "*",
     "Condition": {
       "ForAllValues:StringEquals": {
         "aws:ResourceTag/org:team": "data-infra"
       }
     }
   },
   {
      "Sid": "AllAPIActionsDynamoDB",
      "Effect": "Allow",
      "Action": "dynamodb:*",
      "Resource": "*",
      "Condition": {
       "ForAllValues:StringEquals": {
         "aws:ResourceTag/org:team": "data-infra"
       }
     }
   },
   {
      "Sid": "ManageSecurityGroups",
      "Effect": "Allow",
      "Action": [
         "ec2:AuthorizeSecurityGroupIngress",
         "ec2:RevokeSecurityGroupIngress",
         "ec2:UpdateSecurityGroupRuleDescriptionsIngress",
         "ec2:AuthorizeSecurityGroupEgress",
         "ec2:RevokeSecurityGroupEgress",
         "ec2:UpdateSecurityGroupRuleDescriptionsEgress",
         "ec2:ModifySecurityGroupRules",
         "ec2:DeleteSecurityGroup",
         "ec2:CreateSecurityGroup"
         ],
      "Resource": "*",
      "Condition": {
       "ForAllValues:StringEquals": {
         "aws:ResourceTag/org:team": "data-infra"
       }
     }
   },
   {
      "Sid": "decodepolicy",
      "Effect": "Allow",
      "Action": "sts:DecodeAuthorizationMessage",
      "Resource": "*"
    },
    {
      "Sid": "KMSAccess",
      "Effect": "Allow",
      "Action": [
        "kms:GetPublicKey",
        "kms:Decrypt",
        "kms:ListKeyPolicies",
        "kms:ListRetirableGrants",
        "kms:GetKeyPolicy",
        "kms:GenerateDataKeyWithoutPlaintext",
        "kms:ListResourceTags",
        "kms:GenerateDataKeyPairWithoutPlaintext",
        "kms:GenerateDataKeyPair",
        "kms:ListGrants",
        "kms:GetParametersForImport",
        "kms:DescribeCustomKeyStores",
        "kms:ListKeys",
        "kms:Encrypt",
        "kms:GetKeyRotationStatus",
        "kms:ListAliases",
        "kms:GenerateDataKey",
        "kms:ReEncryptTo",
        "kms:DescribeKey",
        "kms:CreateGrant"
      ],
      "Resource": "*"
    },
    {
      "Sid": "SSMAccess",
      "Effect": "Allow",
      "Action": [
        "ssm:*"
      ],
      "Resource": "*",
      "Condition": {
       "ForAllValues:StringEquals": {
         "aws:ResourceTag/org:team": "data-infra"
      }
     }
    },
    {
      "Effect": "Allow",
      "Action": "dlm:*",
      "Resource": "*"
    },
    {
      "Effect": "Allow",
      "Action": "iam:PassRole",
      "Resource": [
          "arn:aws:iam::*:role/service-role/AWSDataLifecycleManagerDefaultRole",
          "arn:aws:iam::*:role/service-role/AWSDataLifecycleManagerDefaultRoleForAMIManagement"
          ]
    }
  ]
}
